{
  // Other SpecFlow settings
  "specFlow": {
    "unitTestProvider": {
      "name": "NUnit"
    },
    "runtime": {
      "stopAtFirstError": false,
      "missingOrPendingStepsOutcome": "Inconclusive"
    },
    "execution": {
      "testThreadCount": 4, // Set the number of threads you want to run in parallel
      "testSchedulingMode": "ParallelPerFeature"
    }
  }
}
